desc,link,title
[],[u'http://www.nykaa.com/shipping-policy/'],[u'FREE SHIPPING OVER Rs 700']
[],[u'http://www.nykaa.com/shipping-policy/'],[u'CASH ON DELIVERY']
[],[u'http://www.nykaa.com/genuine/'],[u'100% GENUINE']
[],[u'http://www.nykaa.com/nykaa-faq/'],[u'Support - 0 9222 20 1010']
"[u'\n', u'\n']",[u'http://www.nykaa.com/makeup.html'],"[u'\n', u'\n']"
"[u'\n', u'\n']",[u'http://www.nykaa.com/makeup/face.html'],"[u'\n', u'\n']"
"[u'\n', u'\n']",[u'http://www.nykaa.com/makeup/face/face-foundation.html'],"[u'\n', u'\n']"
"[u'\n', u'\n']",[u'http://www.nykaa.com/makeup/face/face-powder.html'],"[u'\n', u'\n']"
"[u'\n', u'\n']",[u'http://www.nykaa.com/makeup/face/tinted-moisturizer.html'],"[u'\n', u'\n']"
"[u'\n', u'\n']",[u'http://www.nykaa.com/makeup/face/face-compact.html'],"[u'\n', u'\n']"
"[u'\n', u'\n']",[u'http://www.nykaa.com/makeup/face/face-primer.html'],"[u'\n', u'\n']"
"[u'\n', u'\n']",[u'http://www.nykaa.com/makeup/face/face-concealer.html'],"[u'\n', u'\n']"
"[u'\n', u'\n']",[u'http://www.nykaa.com/makeup/face/face-blush.html'],"[u'\n', u'\n']"
"[u'\n', u'\n']",[u'http://www.nykaa.com/makeup/face/face-bronzer.html'],"[u'\n', u'\n']"
"[u'\n', u'\n']",[u'http://www.nykaa.com/makeup/face/face-luminizer.html'],"[u'\n', u'\n']"
"[u'\n', u'\n']",[u'http://www.nykaa.com/makeup/face/face-shine-control.html'],"[u'\n', u'\n']"
"[u'\n', u'\n']",[u'http://www.nykaa.com/makeup/face/face-makeup-remover.html'],"[u'\n', u'\n']"
"[u'\n', u'\n']",[u'http://www.nykaa.com/makeup/eyes.html'],"[u'\n', u'\n']"
"[u'\n', u'\n']",[u'http://www.nykaa.com/makeup/eyes/kajal.html'],"[u'\n', u'\n']"
"[u'\n', u'\n']",[u'http://www.nykaa.com/makeup/eyes/eyeliner.html'],"[u'\n', u'\n']"
"[u'\n', u'\n']",[u'http://www.nykaa.com/makeup/eyes/eye-mascara.html'],"[u'\n', u'\n']"
"[u'\n', u'\n']",[u'http://www.nykaa.com/makeup/eyes/eyeshadow.html'],"[u'\n', u'\n']"
"[u'\n', u'\n']",[u'http://www.nykaa.com/makeup/eyes/eye-concealer.html'],"[u'\n', u'\n']"
"[u'\n', u'\n']",[u'http://www.nykaa.com/makeup/eyes/eye-brow-enhancer.html'],"[u'\n', u'\n']"
"[u'\n', u'\n']",[u'http://www.nykaa.com/makeup/eyes/eye-lash-enhancer.html'],"[u'\n', u'\n']"
"[u'\n', u'\n']",[u'http://www.nykaa.com/makeup/eyes/false-eyelashes.html'],"[u'\n', u'\n']"
"[u'\n', u'\n']",[u'http://www.nykaa.com/makeup/eyes/eye-makeup-remover.html'],"[u'\n', u'\n']"
"[u'\n', u'\n']",[u'http://www.nykaa.com/makeup/lips.html'],"[u'\n', u'\n']"
"[u'\n', u'\n']",[u'http://www.nykaa.com/makeup/lips/lipstick.html'],"[u'\n', u'\n']"
"[u'\n', u'\n']",[u'http://www.nykaa.com/makeup/lips/lip-gloss.html'],"[u'\n', u'\n']"
"[u'\n', u'\n']",[u'http://www.nykaa.com/makeup/lips/lip-liner.html'],"[u'\n', u'\n']"
"[u'\n', u'\n']",[u'http://www.nykaa.com/makeup/lips/lip-plumper.html'],"[u'\n', u'\n']"
"[u'\n', u'\n']",[u'http://www.nykaa.com/makeup/lips/lip-balm.html'],"[u'\n', u'\n']"
"[u'\n', u'\n']",[u'http://www.nykaa.com/makeup/nails.html'],"[u'\n', u'\n']"
"[u'\n', u'\n']",[u'http://www.nykaa.com/makeup/nails/nail-polish.html'],"[u'\n', u'\n']"
"[u'\n', u'\n']",[u'http://www.nykaa.com/makeup/nails/nail-effects.html'],"[u'\n', u'\n']"
"[u'\n', u'\n']",[u'http://www.nykaa.com/makeup/nails/nail-sets.html'],"[u'\n', u'\n']"
"[u'\n', u'\n']",[u'http://www.nykaa.com/makeup/nails/nail-appliques.html'],"[u'\n', u'\n']"
"[u'\n', u'\n']",[u'http://www.nykaa.com/makeup/nails/nail-treatments.html'],"[u'\n', u'\n']"
"[u'\n', u'\n']",[u'http://www.nykaa.com/makeup/nails/nail-polish-remover.html'],"[u'\n', u'\n']"
"[u'\n', u'\n']",[u'http://www.nykaa.com/makeup/makeup-body.html'],"[u'\n', u'\n']"
"[u'\n', u'\n']",[u'http://www.nykaa.com/makeup/makeup-body/bronzer.html'],"[u'\n', u'\n']"
"[u'\n', u'\n']",[u'http://www.nykaa.com/makeup/makeup-body/glitter.html'],"[u'\n', u'\n']"
"[u'\n', u'\n']",[u'http://www.nykaa.com/makeup/palettes.html'],"[u'\n', u'\n']"
"[u'\n', u'\n']",[u'http://www.nykaa.com/makeup/palettes/combination-sets.html'],"[u'\n', u'\n']"
"[u'\n', u'\n']",[u'http://www.nykaa.com/makeup/palettes/complexion-sets.html'],"[u'\n', u'\n']"
"[u'\n', u'\n']",[u'http://www.nykaa.com/makeup/palettes/eye-sets-palettes.html'],"[u'\n', u'\n']"
"[u'\n', u'\n']",[u'http://www.nykaa.com/makeup/palettes/lip-sets-palettes.html'],"[u'\n', u'\n']"
"[u'\n', u'\n']",[u'http://www.nykaa.com/makeup/palettes/value-sets.html'],"[u'\n', u'\n']"
"[u'\n', u'\n']",[u'http://www.nykaa.com/makeup/tools-more.html'],"[u'\n', u'\n']"
"[u'\n', u'\n']",[u'http://www.nykaa.com/makeup/tools-more/face-brushes.html'],"[u'\n', u'\n']"
"[u'\n', u'\n']",[u'http://www.nykaa.com/makeup/tools-more/cheek-brushes.html'],"[u'\n', u'\n']"
"[u'\n', u'\n']",[u'http://www.nykaa.com/makeup/tools-more/eye-brushes.html'],"[u'\n', u'\n']"
"[u'\n', u'\n']",[u'http://www.nykaa.com/makeup/tools-more/lip-brushes.html'],"[u'\n', u'\n']"
"[u'\n', u'\n']",[u'http://www.nykaa.com/makeup/tools-more/brush-sets.html'],"[u'\n', u'\n']"
"[u'\n', u'\n']",[u'http://www.nykaa.com/makeup/tools-more/sponges-applicators.html'],"[u'\n', u'\n']"
"[u'\n', u'\n']",[u'http://www.nykaa.com/makeup/tools-more/eyelash-curlers.html'],"[u'\n', u'\n']"
"[u'\n', u'\n']",[u'http://www.nykaa.com/makeup/tools-more/tweezers.html'],"[u'\n', u'\n']"
"[u'\n', u'\n']",[u'http://www.nykaa.com/makeup/tools-more/sharpeners.html'],"[u'\n', u'\n']"
"[u'\n', u'\n']",[u'http://www.nykaa.com/makeup/tools-more/brush-cleaners.html'],"[u'\n', u'\n']"
"[u'\n', u'\n']",[u'http://www.nykaa.com/skin-care.html'],"[u'\n', u'\n']"
"[u'\n', u'\n']",[u'http://www.nykaa.com/skin-care/face.html'],"[u'\n', u'\n']"
"[u'\n', u'\n']",[u'http://www.nykaa.com/skin-care/face/face-cleanser.html'],"[u'\n', u'\n']"
"[u'\n', u'\n']",[u'http://www.nykaa.com/skin-care/face/face-toner.html'],"[u'\n', u'\n']"
"[u'\n', u'\n']",[u'http://www.nykaa.com/skin-care/face/face-moisturizer.html'],"[u'\n', u'\n']"
"[u'\n', u'\n']",[u'http://www.nykaa.com/skin-care/face/anti-acne.html'],"[u'\n', u'\n']"
"[u'\n', u'\n']",[u'http://www.nykaa.com/skin-care/face/sunscreen.html'],"[u'\n', u'\n']"
"[u'\n', u'\n']",[u'http://www.nykaa.com/skin-care/face/masks-peels.html'],"[u'\n', u'\n']"
"[u'\n', u'\n']",[u'http://www.nykaa.com/skin-care/face/face-scrubs-exfoliators.html'],"[u'\n', u'\n']"
"[u'\n', u'\n']",[u'http://www.nykaa.com/skin-care/face/face-wash.html'],"[u'\n', u'\n']"
"[u'\n', u'\n']",[u'http://www.nykaa.com/skin-care/face/face-day-cream.html'],"[u'\n', u'\n']"
"[u'\n', u'\n']",[u'http://www.nykaa.com/skin-care/face/face-night-cream.html'],"[u'\n', u'\n']"
"[u'\n', u'\n']",[u'http://www.nykaa.com/skin-care/face/cold-cream.html'],"[u'\n', u'\n']"
"[u'\n', u'\n']",[u'http://www.nykaa.com/skin-care/face/face-fairness.html'],"[u'\n', u'\n']"
"[u'\n', u'\n']",[u'http://www.nykaa.com/skin-care/face/facialkit.html'],"[u'\n', u'\n']"
"[u'\n', u'\n']",[u'http://www.nykaa.com/skin-care/face/facetreament.html'],"[u'\n', u'\n']"
"[u'\n', u'\n']",[u'http://www.nykaa.com/skin-care/under-eyes.html'],"[u'\n', u'\n']"
"[u'\n', u'\n']",[u'http://www.nykaa.com/skin-care/under-eyes/under-eye-cream.html'],"[u'\n', u'\n']"
"[u'\n', u'\n']",[u'http://www.nykaa.com/skin-care/under-eyes/under-eye-serum.html'],"[u'\n', u'\n']"
"[u'\n', u'\n']",[u'http://www.nykaa.com/skin-care/lips.html'],"[u'\n', u'\n']"
"[u'\n', u'\n']",[u'http://www.nykaa.com/skin-care/lips/lip-balm.html'],"[u'\n', u'\n']"
"[u'\n', u'\n']",[u'http://www.nykaa.com/skin-care/lips/lip-salve.html'],"[u'\n', u'\n']"
"[u'\n', u'\n']",[u'http://www.nykaa.com/skin-care/lips/lip-butter.html'],"[u'\n', u'\n']"
"[u'\n', u'\n']",[u'http://www.nykaa.com/skin-care/lips/lip-primer.html'],"[u'\n', u'\n']"
"[u'\n', u'\n']",[u'http://www.nykaa.com/skin-care/neck-and-decollete.html'],"[u'\n', u'\n']"
"[u'\n', u'\n']",[u'http://www.nykaa.com/skin-care/neck-and-decollete/neck-firming-cream.html'],"[u'\n', u'\n']"
"[u'\n', u'\n']",[u'http://www.nykaa.com/skin-care/neck-and-decollete/neck-anti-ageing-cream.html'],"[u'\n', u'\n']"
"[u'\n', u'\n']",[u'http://www.nykaa.com/skin-care/tools-and-accessories.html'],"[u'\n', u'\n']"
"[u'\n', u'\n']",[u'http://www.nykaa.com/hair-care.html'],"[u'\n', u'\n']"
"[u'\n', u'\n']",[u'http://www.nykaa.com/hair-care/hair.html'],"[u'\n', u'\n']"
"[u'\n', u'\n']",[u'http://www.nykaa.com/hair-care/hair/shampoo.html'],"[u'\n', u'\n']"
"[u'\n', u'\n']",[u'http://www.nykaa.com/hair-care/hair/dry-shampoo.html'],"[u'\n', u'\n']"
"[u'\n', u'\n']",[u'http://www.nykaa.com/hair-care/hair/anti-dandruff-shampoo.html'],"[u'\n', u'\n']"
"[u'\n', u'\n']",[u'http://www.nykaa.com/hair-care/hair/conditioner.html'],"[u'\n', u'\n']"
"[u'\n', u'\n']",[u'http://www.nykaa.com/hair-care/hair/serum.html'],"[u'\n', u'\n']"
"[u'\n', u'\n']",[u'http://www.nykaa.com/hair-care/hair/hair-gel.html'],"[u'\n', u'\n']"
"[u'\n', u'\n']",[u'http://www.nykaa.com/hair-care/hair/hair-mousse.html'],"[u'\n', u'\n']"
"[u'\n', u'\n']",[u'http://www.nykaa.com/hair-care/oils-masks.html'],"[u'\n', u'\n']"
"[u'\n', u'\n']",[u'http://www.nykaa.com/hair-care/hair-color.html'],"[u'\n', u'\n']"
"[u'\n', u'\n']",[u'http://www.nykaa.com/hair-care/hair-styling.html'],"[u'\n', u'\n']"
"[u'\n', u'\n']",[u'http://www.nykaa.com/hair-care/hair-styling/hair-styling-serum.html'],"[u'\n', u'\n']"
"[u'\n', u'\n']",[u'http://www.nykaa.com/hair-care/hair-styling/hair-spray.html'],"[u'\n', u'\n']"
"[u'\n', u'\n']",[u'http://www.nykaa.com/hair-care/hair-styling/hair-thickening-cream.html'],"[u'\n', u'\n']"
"[u'\n', u'\n']",[u'http://www.nykaa.com/hair-care/hair-styling/hair-volume-spray.html'],"[u'\n', u'\n']"
"[u'\n', u'\n']",[u'http://www.nykaa.com/hair-care/hair-styling/hair-relaxing-balm.html'],"[u'\n', u'\n']"
"[u'\n', u'\n']",[u'http://www.nykaa.com/hair-care/hair-accessories.html'],"[u'\n', u'\n']"
"[u'\n', u'\n']",[u'http://www.nykaa.com/hair-care/hair-accessories/hair-bands.html'],"[u'\n', u'\n']"
"[u'\n', u'\n']",[u'http://www.nykaa.com/hair-care/hair-accessories/hair-elastics.html'],"[u'\n', u'\n']"
"[u'\n', u'\n']",[u'http://www.nykaa.com/hair-care/hair-accessories/ponytail-holders.html'],"[u'\n', u'\n']"
"[u'\n', u'\n']",[u'http://www.nykaa.com/hair-care/hair-accessories/hair-clips.html'],"[u'\n', u'\n']"
"[u'\n', u'\n']",[u'http://www.nykaa.com/hair-care/hair-accessories/hair-clippers.html'],"[u'\n', u'\n']"
"[u'\n', u'\n']",[u'http://www.nykaa.com/hair-care/salon-professional.html'],"[u'\n', u'\n']"
"[u'\n', u'\n']",[u'http://www.nykaa.com/hair-care/tools-and-accessories.html'],"[u'\n', u'\n']"
"[u'\n', u'\n']",[u'http://www.nykaa.com/hair-care/tools-and-accessories/hair-brushes.html'],"[u'\n', u'\n']"
"[u'\n', u'\n']",[u'http://www.nykaa.com/hair-care/tools-and-accessories/combs.html'],"[u'\n', u'\n']"
"[u'\n', u'\n']",[u'http://www.nykaa.com/hair-care/tools-and-accessories/hair-dryers.html'],"[u'\n', u'\n']"
"[u'\n', u'\n']",[u'http://www.nykaa.com/hair-care/tools-and-accessories/hair-curlers.html'],"[u'\n', u'\n']"
"[u'\n', u'\n']",[u'http://www.nykaa.com/hair-care/tools-and-accessories/hair-straightening-irons.html'],"[u'\n', u'\n']"
"[u'\n', u'\n']",[u'http://www.nykaa.com/hair-care/tools-and-accessories/hair-tongs.html'],"[u'\n', u'\n']"
"[u'\n', u'\n']",[u'http://www.nykaa.com/hair-care/tools-and-accessories/hair-rollers.html'],"[u'\n', u'\n']"
"[u'\n', u'\n']",[u'http://www.nykaa.com/hair-care/tools-and-accessories/hair-sheers.html'],"[u'\n', u'\n']"
"[u'\n', u'\n']",[u'http://www.nykaa.com/bath-and-body.html'],"[u'\n', u'\n']"
"[u'\n', u'\n']",[u'http://www.nykaa.com/bath-and-body/bath.html'],"[u'\n', u'\n']"
"[u'\n', u'\n']",[u'http://www.nykaa.com/bath-and-body/bath/soaps.html'],"[u'\n', u'\n']"
"[u'\n', u'\n']",[u'http://www.nykaa.com/bath-and-body/bath/gels.html'],"[u'\n', u'\n']"
"[u'\n', u'\n']",[u'http://www.nykaa.com/bath-and-body/bath/scrubs-and-exfoliants.html'],"[u'\n', u'\n']"
"[u'\n', u'\n']",[u'http://www.nykaa.com/bath-and-body/bath/bath-salts.html'],"[u'\n', u'\n']"
"[u'\n', u'\n']",[u'http://www.nykaa.com/bath-and-body/body.html'],"[u'\n', u'\n']"
"[u'\n', u'\n']",[u'http://www.nykaa.com/bath-and-body/body/moisturizing-lotion.html'],"[u'\n', u'\n']"
"[u'\n', u'\n']",[u'http://www.nykaa.com/bath-and-body/body/massage-oils.html'],"[u'\n', u'\n']"
"[u'\n', u'\n']",[u'http://www.nykaa.com/bath-and-body/body/aromatherapy-oils.html'],"[u'\n', u'\n']"
"[u'\n', u'\n']",[u'http://www.nykaa.com/bath-and-body/body/talcum-powder.html'],"[u'\n', u'\n']"
"[u'\n', u'\n']",[u'http://www.nykaa.com/bath-and-body/body/bronzers.html'],"[u'\n', u'\n']"
"[u'\n', u'\n']",[u'http://www.nykaa.com/bath-and-body/body/sunscreen.html'],"[u'\n', u'\n']"
"[u'\n', u'\n']",[u'http://www.nykaa.com/bath-and-body/body/deodorants.html'],"[u'\n', u'\n']"
"[u'\n', u'\n']",[u'http://www.nykaa.com/bath-and-body/body/anti-perspirants.html'],"[u'\n', u'\n']"
"[u'\n', u'\n']",[u'http://www.nykaa.com/bath-and-body/body/anti-stretch-creams.html'],"[u'\n', u'\n']"
"[u'\n', u'\n']",[u'http://www.nykaa.com/bath-and-body/body/anti-cellulite-creams.html'],"[u'\n', u'\n']"
"[u'\n', u'\n']",[u'http://www.nykaa.com/bath-and-body/hands-and-feet-53.html'],"[u'\n', u'\n']"
"[u'\n', u'\n']",[u'http://www.nykaa.com/bath-and-body/hands-and-feet-53/hand-creams.html'],"[u'\n', u'\n']"
"[u'\n', u'\n']",[u'http://www.nykaa.com/bath-and-body/hands-and-feet-53/foot-creams.html'],"[u'\n', u'\n']"
"[u'\n', u'\n']",[u'http://www.nykaa.com/bath-and-body/hands-and-feet-53/manicure-pedicure.html'],"[u'\n', u'\n']"
"[u'\n', u'\n']",[u'http://www.nykaa.com/bath-and-body/hands-and-feet-53/finger-separators.html'],"[u'\n', u'\n']"
"[u'\n', u'\n']",[u'http://www.nykaa.com/bath-and-body/hands-and-feet-53/nail-creams.html'],"[u'\n', u'\n']"
"[u'\n', u'\n']",[u'http://www.nykaa.com/bath-and-body/hands-and-feet-53/heel-creams.html'],"[u'\n', u'\n']"
"[u'\n', u'\n']",[u'http://www.nykaa.com/bath-and-body/hands-and-feet-53/hand-sanitizer.html'],"[u'\n', u'\n']"
"[u'\n', u'\n']",[u'http://www.nykaa.com/bath-and-body/hands-and-feet-53/handwash.html'],"[u'\n', u'\n']"
"[u'\n', u'\n']",[u'http://www.nykaa.com/bath-and-body/hair-removal.html'],"[u'\n', u'\n']"
"[u'\n', u'\n']",[u'http://www.nykaa.com/bath-and-body/hair-removal/epilators.html'],"[u'\n', u'\n']"
"[u'\n', u'\n']",[u'http://www.nykaa.com/bath-and-body/hair-removal/razors.html'],"[u'\n', u'\n']"
"[u'\n', u'\n']",[u'http://www.nykaa.com/bath-and-body/hair-removal/depilatory-creams.html'],"[u'\n', u'\n']"
"[u'\n', u'\n']",[u'http://www.nykaa.com/bath-and-body/hair-removal/waxing-kits.html'],"[u'\n', u'\n']"
"[u'\n', u'\n']",[u'http://www.nykaa.com/bath-and-body/hair-removal/shaving-gels.html'],"[u'\n', u'\n']"
"[u'\n', u'\n']",[u'http://www.nykaa.com/bath-and-body/dentalcare.html'],"[u'\n', u'\n']"
"[u'\n', u'\n']",[u'http://www.nykaa.com/bath-and-body/dentalcare/mouthwash.html'],"[u'\n', u'\n']"
"[u'\n', u'\n']",[u'http://www.nykaa.com/bath-and-body/dentalcare/toothbrush.html'],"[u'\n', u'\n']"
"[u'\n', u'\n']",[u'http://www.nykaa.com/bath-and-body/dentalcare/dentalfloss.html'],"[u'\n', u'\n']"
"[u'\n', u'\n']",[u'http://www.nykaa.com/bath-and-body/dentalcare/electric-toothbrushes.html'],"[u'\n', u'\n']"
"[u'\n', u'\n']",[u'http://www.nykaa.com/bath-and-body/tools-n-more.html'],"[u'\n', u'\n']"
"[u'\n', u'\n']",[u'http://www.nykaa.com/bath-and-body/tools-n-more/bags-and-cases.html'],"[u'\n', u'\n']"
"[u'\n', u'\n']",[u'http://www.nykaa.com/bath-and-body/tools-n-more/loofahs.html'],"[u'\n', u'\n']"
"[u'\n', u'\n']",[u'http://www.nykaa.com/bath-and-body/tools-n-more/pumice-stones.html'],"[u'\n', u'\n']"
"[u'\n', u'\n']",[u'http://www.nykaa.com/bath-and-body/tools-n-more/foot-scrapers.html'],"[u'\n', u'\n']"
"[u'\n', u'\n']",[u'http://www.nykaa.com/bath-and-body/tools-n-more/nail-files-sets.html'],"[u'\n', u'\n']"
"[u'\n', u'\n']",[u'http://www.nykaa.com/bath-and-body/tools-n-more/scissors.html'],"[u'\n', u'\n']"
"[u'\n', u'\n']",[u'http://www.nykaa.com/fragrance.html'],"[u'\n', u'\n']"
"[u'\n', u'\n']",[u'http://www.nykaa.com/fragrance/women.html'],"[u'\n', u'\n']"
"[u'\n', u'\n']",[u'http://www.nykaa.com/fragrance/women/perfumes.html'],"[u'\n', u'\n']"
"[u'\n', u'\n']",[u'http://www.nykaa.com/fragrance/women/sprays.html'],"[u'\n', u'\n']"
"[u'\n', u'\n']",[u'http://www.nykaa.com/fragrance/women/body-mists-and-splashes.html'],"[u'\n', u'\n']"
"[u'\n', u'\n']",[u'http://www.nykaa.com/fragrance/women/roll-ons.html'],"[u'\n', u'\n']"
"[u'\n', u'\n']",[u'http://www.nykaa.com/fragrance/women/anti-perspirants.html'],"[u'\n', u'\n']"
"[u'\n', u'\n']",[u'http://www.nykaa.com/fragrance/women/deodorants.html'],"[u'\n', u'\n']"
"[u'\n', u'\n']",[u'http://www.nykaa.com/fragrance/women/hair-perfumes.html'],"[u'\n', u'\n']"
"[u'\n', u'\n']",[u'http://www.nykaa.com/fragrance/men.html'],"[u'\n', u'\n']"
"[u'\n', u'\n']",[u'http://www.nykaa.com/fragrance/men/sprays.html'],"[u'\n', u'\n']"
"[u'\n', u'\n']",[u'http://www.nykaa.com/fragrance/men/colognes.html'],"[u'\n', u'\n']"
"[u'\n', u'\n']",[u'http://www.nykaa.com/fragrance/men/aftershaves.html'],"[u'\n', u'\n']"
"[u'\n', u'\n']",[u'http://www.nykaa.com/fragrance/men/roll-ons.html'],"[u'\n', u'\n']"
"[u'\n', u'\n']",[u'http://www.nykaa.com/fragrance/men/roller-ball.html'],"[u'\n', u'\n']"
"[u'\n', u'\n']",[u'http://www.nykaa.com/fragrance/men/anti-perspirants.html'],"[u'\n', u'\n']"
"[u'\n', u'\n']",[u'http://www.nykaa.com/fragrance/men/deodorants.html'],"[u'\n', u'\n']"
"[u'\n', u'\n']",[u'http://www.nykaa.com/fragrance/men/perfumes.html'],"[u'\n', u'\n']"
"[u'\n', u'\n']",[u'http://www.nykaa.com/fragrance/home.html'],"[u'\n', u'\n']"
"[u'\n', u'\n']",[u'http://www.nykaa.com/fragrance/home/scented-candle.html'],"[u'\n', u'\n']"
"[u'\n', u'\n']",[u'http://www.nykaa.com/fragrance/home/essential-oil.html'],"[u'\n', u'\n']"
"[u'\n', u'\n']",[u'http://www.nykaa.com/fragrance/home/air-freshener.html'],"[u'\n', u'\n']"
"[u'\n', u'\n']",[u'http://www.nykaa.com/fragrance/giftsets.html'],"[u'\n', u'\n']"
"[u'\n', u'\n']",[u'http://www.nykaa.com/fragrance/giftsets/his.html'],"[u'\n', u'\n']"
"[u'\n', u'\n']",[u'http://www.nykaa.com/fragrance/giftsets/fragrance-hers.html'],"[u'\n', u'\n']"
"[u'\n', u'\n']",[u'http://www.nykaa.com/fragrance/giftsets/fragrance-combos.html'],"[u'\n', u'\n']"
"[u'\n', u'\n']",[u'http://www.nykaa.com/herbal.html'],"[u'\n', u'\n']"
"[u'\n', u'\n']",[u'http://www.nykaa.com/herbal/makeup.html'],"[u'\n', u'\n']"
"[u'\n', u'\n']",[u'http://www.nykaa.com/herbal/skincare.html'],"[u'\n', u'\n']"
"[u'\n', u'\n']",[u'http://www.nykaa.com/herbal/skincare/cleanser.html'],"[u'\n', u'\n']"
"[u'\n', u'\n']",[u'http://www.nykaa.com/herbal/skincare/toner.html'],"[u'\n', u'\n']"
"[u'\n', u'\n']",[u'http://www.nykaa.com/herbal/skincare/moisturizers.html'],"[u'\n', u'\n']"
"[u'\n', u'\n']",[u'http://www.nykaa.com/herbal/skincare/anti-acne.html'],"[u'\n', u'\n']"
"[u'\n', u'\n']",[u'http://www.nykaa.com/herbal/skincare/sunscreen.html'],"[u'\n', u'\n']"
"[u'\n', u'\n']",[u'http://www.nykaa.com/herbal/skincare/masksandpeels.html'],"[u'\n', u'\n']"
"[u'\n', u'\n']",[u'http://www.nykaa.com/herbal/skincare/scrubsandexfoliators.html'],"[u'\n', u'\n']"
"[u'\n', u'\n']",[u'http://www.nykaa.com/herbal/skincare/facewash.html'],"[u'\n', u'\n']"
"[u'\n', u'\n']",[u'http://www.nykaa.com/herbal/skincare/daycream.html'],"[u'\n', u'\n']"
"[u'\n', u'\n']",[u'http://www.nykaa.com/herbal/skincare/nightcream.html'],"[u'\n', u'\n']"
"[u'\n', u'\n']",[u'http://www.nykaa.com/herbal/skincare/fairness.html'],"[u'\n', u'\n']"
"[u'\n', u'\n']",[u'http://www.nykaa.com/herbal/skincare/under-eyecream.html'],"[u'\n', u'\n']"
"[u'\n', u'\n']",[u'http://www.nykaa.com/herbal/skincare/lipcare.html'],"[u'\n', u'\n']"
"[u'\n', u'\n']",[u'http://www.nykaa.com/herbal/skincare/firmingcream.html'],"[u'\n', u'\n']"
"[u'\n', u'\n']",[u'http://www.nykaa.com/herbal/skincare/anti-ageingcream.html'],"[u'\n', u'\n']"
"[u'\n', u'\n']",[u'http://www.nykaa.com/herbal/haircare.html'],"[u'\n', u'\n']"
"[u'\n', u'\n']",[u'http://www.nykaa.com/herbal/haircare/shampoo.html'],"[u'\n', u'\n']"
"[u'\n', u'\n']",[u'http://www.nykaa.com/herbal/haircare/anti-dandruffshampoo.html'],"[u'\n', u'\n']"
"[u'\n', u'\n']",[u'http://www.nykaa.com/herbal/haircare/conditioner.html'],"[u'\n', u'\n']"
"[u'\n', u'\n']",[u'http://www.nykaa.com/herbal/haircare/serums.html'],"[u'\n', u'\n']"
"[u'\n', u'\n']",[u'http://www.nykaa.com/herbal/haircare/color.html'],"[u'\n', u'\n']"
"[u'\n', u'\n']",[u'http://www.nykaa.com/herbal/haircare/oils.html'],"[u'\n', u'\n']"
"[u'\n', u'\n']",[u'http://www.nykaa.com/herbal/bathandbody.html'],"[u'\n', u'\n']"
"[u'\n', u'\n']",[u'http://www.nykaa.com/herbal/bathandbody/bathingsoaps.html'],"[u'\n', u'\n']"
"[u'\n', u'\n']",[u'http://www.nykaa.com/herbal/bathandbody/bathinggels.html'],"[u'\n', u'\n']"
"[u'\n', u'\n']",[u'http://www.nykaa.com/herbal/bathandbody/bodyscrubs-exfoliants.html'],"[u'\n', u'\n']"
"[u'\n', u'\n']",[u'http://www.nykaa.com/herbal/bathandbody/bathsalts.html'],"[u'\n', u'\n']"
"[u'\n', u'\n']",[u'http://www.nykaa.com/herbal/bathandbody/moisturizinglotions.html'],"[u'\n', u'\n']"
"[u'\n', u'\n']",[u'http://www.nykaa.com/herbal/bathandbody/massageoils.html'],"[u'\n', u'\n']"
"[u'\n', u'\n']",[u'http://www.nykaa.com/herbal/bathandbody/aromatherapyoils.html'],"[u'\n', u'\n']"
"[u'\n', u'\n']",[u'http://www.nykaa.com/herbal/bathandbody/talcumpowder.html'],"[u'\n', u'\n']"
"[u'\n', u'\n']",[u'http://www.nykaa.com/herbal/bathandbody/sunscreen.html'],"[u'\n', u'\n']"
"[u'\n', u'\n']",[u'http://www.nykaa.com/herbal/bathandbody/hand-footcare.html'],"[u'\n', u'\n']"
"[u'\n', u'\n']",[u'http://www.nykaa.com/herbal/fragrances.html'],"[u'\n', u'\n']"
"[u'\n', u'\n']",[u'http://www.nykaa.com/herbal/personalcare.html'],"[u'\n', u'\n']"
"[u'\n', u'\n']",[u'http://www.nykaa.com/herbal/personalcare/facialwipes.html'],"[u'\n', u'\n']"
"[u'\n', u'\n']",[u'http://www.nykaa.com/herbal/personalcare/handwash.html'],"[u'\n', u'\n']"
"[u'\n', u'\n']",[u'http://www.nykaa.com/herbal/personalcare/toothpaste.html'],"[u'\n', u'\n']"
"[u'\n', u'\n']",[u'http://www.nykaa.com/herbal/mens.html'],"[u'\n', u'\n']"
"[u'\n', u'\n']",[u'http://www.nykaa.com/wellness.html'],"[u'\n', u'\n']"
"[u'\n', u'\n']",[u'http://www.nykaa.com/wellness/health-supplements.html'],"[u'\n', u'\n']"
"[u'\n', u'\n']",[u'http://www.nykaa.com/mom-and-baby.html'],"[u'\n', u'\n']"
"[u'\n', u'\n']",[u'http://www.nykaa.com/mom-and-baby/feminine-hygiene.html'],"[u'\n', u'\n']"
"[u'\n', u'\n']",[u'http://www.nykaa.com/mom-and-baby/feminine-hygiene/facial-wipes.html'],"[u'\n', u'\n']"
"[u'\n', u'\n']",[u'http://www.nykaa.com/mom-and-baby/feminine-hygiene/cotton-balls.html'],"[u'\n', u'\n']"
"[u'\n', u'\n']",[u'http://www.nykaa.com/mom-and-baby/feminine-hygiene/sanitary-napkins.html'],"[u'\n', u'\n']"
"[u'\n', u'\n']",[u'http://www.nykaa.com/mom-and-baby/feminine-hygiene/tampons.html'],"[u'\n', u'\n']"
"[u'\n', u'\n']",[u'http://www.nykaa.com/mom-and-baby/feminine-hygiene/panty-liners.html'],"[u'\n', u'\n']"
"[u'\n', u'\n']",[u'http://www.nykaa.com/mom-and-baby/feminine-hygiene/home-wax-kits.html'],"[u'\n', u'\n']"
"[u'\n', u'\n']",[u'http://www.nykaa.com/mom-and-baby/baby-care.html'],"[u'\n', u'\n']"
"[u'\n', u'\n']",[u'http://www.nykaa.com/mom-and-baby/baby-care/baby-soap.html'],"[u'\n', u'\n']"
"[u'\n', u'\n']",[u'http://www.nykaa.com/mom-and-baby/baby-care/baby-shampoo.html'],"[u'\n', u'\n']"
"[u'\n', u'\n']",[u'http://www.nykaa.com/mom-and-baby/baby-care/baby-lotions-powders-oils.html'],"[u'\n', u'\n']"
"[u'\n', u'\n']",[u'http://www.nykaa.com/mom-and-baby/baby-care/baby-diapers.html'],"[u'\n', u'\n']"
"[u'\n', u'\n']",[u'http://www.nykaa.com/mom-and-baby/baby-care/baby-wipes.html'],"[u'\n', u'\n']"
"[u'\n', u'\n']",[u'http://www.nykaa.com/mom-and-baby/baby-care/diaper-rash-cream.html'],"[u'\n', u'\n']"
"[u'\n', u'\n']",[u'http://www.nykaa.com/mom-and-baby/baby-care/baby-care-collections.html'],"[u'\n', u'\n']"
"[u'\n', u'\n']",[u'http://www.nykaa.com/mom-and-baby/mother-care.html'],"[u'\n', u'\n']"
"[u'\n', u'\n']",[u'http://www.nykaa.com/mom-and-baby/mother-care/stretch-mark-cream.html'],"[u'\n', u'\n']"
"[u'\n', u'\n']",[u'http://www.nykaa.com/mom-and-baby/mother-care/nipple-cream-balm.html'],"[u'\n', u'\n']"
"[u'\n', u'\n']",[u'http://www.nykaa.com/mom-and-baby/mother-care/bust-firming-gel.html'],"[u'\n', u'\n']"
"[u'\n', u'\n']",[u'http://www.nykaa.com/mom-and-baby/mother-care/massage-oil.html'],"[u'\n', u'\n']"
"[u'\n', u'\n']",[u'http://www.nykaa.com/gifts.html'],"[u'\n', u'\n']"
"[u'\n', u'\n']",[u'http://www.nykaa.com/gifts/makeup-palettes.html'],"[u'\n', u'\n']"
"[u'\n', u'\n']",[u'http://www.nykaa.com/gifts/skincare-gift-sets.html'],"[u'\n', u'\n']"
"[u'\n', u'\n']",[u'http://www.nykaa.com/gifts/bath-and-body-gifts.html'],"[u'\n', u'\n']"
"[u'\n', u'\n']",[u'http://www.nykaa.com/gifts/fragrance-gift-sets.html'],"[u'\n', u'\n']"
"[u'\n', u'\n']",[u'http://www.nykaa.com/offers-promos.html'],"[u'\n', u'\n']"
[u'\n            '],[u'http://www.nykaa.com/advice/'],[]
[],[u'http://beautybook.nykaa.com'],[u'Beauty Book']
[],[u'http://www.nykaa.com/experts/'],[]
[],[u'http://www.facebook.com/mynykaa'],[]
"[u'\n                        ', u'\n            \t               ', u'\n                ', u'\n                ', u'\n                                        ', u'\n                        ']",[u'http://www.nykaa.com/'],[u'NYKAA']
"[u'\n                        ', u'\n            \t               ', u'\n                ', u'\n                ', u'\n                                        ', u'\n                        ']",[u'http://www.nykaa.com/fragrance.html'],[u'Fragrance']
"[u'\n                        ', u'\n            \t               ', u'\n                ', u'\n                ', u'\n                                        ', u'\n                        ']",[u'http://www.nykaa.com/fragrance/men.html'],[u'Men']
"[u'\n                            ', u'\n                                    ']",[],[]
"[u'\n                                    ', u'\n            ', u'\n            ', u'\n            ', u' \n            ', u' \n            ', u' \n          ']",[u'http://www.nykaa.com/fragrance/men/sprays/david-beckham-instinct-eau-de-toilette-perfume-for-men-1594.html'],[u'\n                        ']
"[u'\n                                    ', u'\n            ', u'\n            ', u'\n            ', u' \n            ', u' \n            ', u' \n          ']",[u'http://www.nykaa.com/fragrance/men/sprays/david-beckham-instinct-eau-de-toilette-perfume-for-men.html'],[u'\n                        ']
"[u'\n                                    ', u'\n            ', u'\n            ', u'\n            ', u' \n            ', u' \n            ', u' \n          ']",[u'http://www.nykaa.com/fragrance/men/sprays/david-beckham-intimately-for-men-eau-de-toilette.html'],[u'\n                        ']
"[u'\n                                    ', u'\n            ', u'\n            ', u'\n            ', u' \n            ', u' \n            ', u' \n          ']",[u'http://www.nykaa.com/fragrance/men/sprays/david-beckham-signature-for-men-eau-de-toilette.html'],[u'\n                        ']
"[u'\n                                    ', u'\n            ', u'\n            ', u'\n            ', u' \n            ', u' \n            ', u' \n          ']",[u'http://www.nykaa.com/fragrance/men/sprays/guess-by-marciano-for-men-eau-de-toilette-spray.html'],[u'\n                        ']
"[u'\n                                    ', u'\n            ', u'\n            ', u'\n            ', u' \n            ', u' \n            ', u' \n          ']",[u'http://www.nykaa.com/fragrance/men/sprays/guess-by-marciano-for-men-eau-de-toilette-spray-1603.html'],[u'\n                        ']
"[u'\n                                    ', u'\n            ', u'\n            ', u'\n            ', u' \n            ', u' \n            ', u' \n          ']",[u'http://www.nykaa.com/fragrance/men/sprays/guess-man-eau-de-toilette-spray.html'],[u'\n                        ']
"[u'\n                                    ', u'\n            ', u'\n            ', u'\n            ', u' \n            ', u' \n            ', u' \n          ']",[u'http://www.nykaa.com/fragrance/men/sprays/guess-seductive-men-eau-de-toilette-spray.html'],[u'\n                        ']
"[u'\n                                    ', u'\n            ', u'\n            ', u'\n            ', u' \n            ', u' \n            ', u' \n          ']",[u'http://www.nykaa.com/fragrance/men/sprays/guess-seductive-men-eau-de-toilette-spray-1606.html'],[u'\n                        ']
"[u'\n                                    ', u'\n            ', u'\n            ', u'\n            ', u' \n            ', u' \n            ', u' \n          ']",[u'http://www.nykaa.com/fragrance/men/sprays/jaguar-classic-black-eau-de-toilette-spray.html'],[u'\n                        ']
"[u'\n                                    ', u'\n            ', u'\n            ', u'\n            ', u' \n            ', u' \n            ', u' \n          ']",[u'http://www.nykaa.com/fragrance/men/sprays/jaguar-performance-eau-de-toilette-spray.html'],[u'\n                        ']
"[u'\n                                    ', u'\n            ', u'\n            ', u'\n            ', u' \n            ', u' \n            ', u' \n          ']",[u'http://www.nykaa.com/fragrance/men/sprays/nautica-aqua-rush-eau-de-toilette-spray.html'],[u'\n                        ']
[],[u'http://www.nykaa.com/nykaa-faq#buy/'],[u'Buy on Nykaa']
[],[u'http://www.nykaa.com/nykaa-faq#pay/'],[u'Pay for my Order']
[],[u'http://www.nykaa.com/nykaa-faq#track/'],[u'Track my Order']
[],[u'http://www.nykaa.com/nykaa-faq#cancel/'],[u'Cancel my Order']
[],[u'http://www.nykaa.com/nykaa-faq#cancel/'],[u'Return my Order']
[],[],[u'Login']
[],[u'#popupopen'],[u'My Shopping Bag']
[],[u'http://www.nykaa.com/#/'],[u'My Wishlist']
[],[u'http://www.nykaa.com/experts/'],[u'Experts @ Nykaa']
[],[u'http://beautybook.nykaa.com'],[u'Beauty Book']
[],[u'http://www.nykaa.com/feedback/'],[u'Ask Nykaa']
[],[u'http://www.nykaa.com/about-nykaa/'],[u'About Us']
[],[u'http://www.nykaa.com/nykaa_news/'],[u'Nykaa in the News']
[],[u'http://www.nykaa.com/testimonials/'],[u'Testimonials']
